965351 817028
155727 459021
694431 861373
227638 654795
654280 189051
885862 623813
455279 224282
597169 636674
880122 703898
44517 597883
127334 694803
319831 860780
759250 600411
87190 605421
559886 13266
827995 381534
916096 166105
813265 485968
431015 597692
161382 772123
853877 849480
285430 573457
370757 930595
30642 469802
122422 790177
806806 816432
629171 142234
831210 699519
177901 641040
279286 552281
147001 339782
217869 526633
291439 607929
199832 376537
846808 122008
570206 503890
620732 867950
831535 990862
121540 735147
795986 659095
645449 244417
858793 572245
34404 748145
926364 997493
859574 402578
688802 654138
48939 18753
167571 358407
740411 794207
447591 414329
950630 473506
545666 631415
36631 460585
275404 243282
55485 220413
73715 648630
967178 353238
50454 875359
58972 872837
844794 918426
637097 337422
190257 924390
616883 575159
925951 482207
843359 515489
782685 155357
222916 784016
938368 900528
640406 837963
730430 111051
945353 715844
340633 51839
380414 782231
289852 452313
679742 970364
214102 262786
93579 612014
83391 352118
812070 786868
941403 375910
219484 283969
341460 501494
998811 431809
85022 512718
982046 300295
879971 656038
684573 293017
214944 325710
92006 764928
288245 70216
208280 770234
40809 374221
328558 583578
183949 800882
234513 653735
64616 915376
793896 416189
861509 133470
877628 236858
960967 588804
592178 813434
363701 882091
877643 527931
863805 991604
279621 865070
495724 739484
487722 73506
665921 386207
5884 671060
4206 603587
226821 669855
836706 494977
951770 439825
377957 648129
370552 941572
898689 796884
601096 482053
701173 76849
856629 530370
576349 863930
304362 909488
965507 821278
638034 72009
200224 81941
526048 817833
131282 707368
81839 261664
396296 210220
447254 391143
145742 71420
709918 77327
894924 625168
535054 175558
223380 830418
74165 254113
277291 686274
844839 201584
510225 538126
608072 274911
129790 561757
682947 631980
697365 639947
537393 374331
254881 902527
143873 933118
885788 883338
692993 137325
265692 43678
175118 272069
808175 375478
255179 470910
61460 330736
312522 180321
456768 645368
749998 872512
143039 300233
989519 396609
831990 607042
2646 123892
128410 14530
830457 162290
874772 561878
104038 85669
194084 401616
348568 774538
1296 586377
598211 169626
815729 706619
370055 843792
348684 319302
258106 969177
44364 170215
327249 25512
600291 286059
689894 928353
628138 263893
506642 848382
905587 489176
542846 99140
961962 826981
87527 280876
838020 392261
573690 405676
363809 712663
452488 669245
165162 369060
664698 622063
253872 807835
305275 590832
80099 593334
429709 72059
241041 166474
228419 369137
970056 113155
879410 95627
560707 962057
52775 31906
259886 877556
311045 494594
54385 523883
567341 660582
235118 227353
586363 458064
647763 959296
45959 976130
462500 163671
24550 366270
