527281 250391
93082 896997
702552 104303
552571 736311
948492 160312
949481 543102
109143 635100
547684 267102
591182 182542
708579 945091
998274 585281
772696 106003
315301 215679
380223 431438
898959 658720
432112 792459
85703 552650
560811 753473
763412 133245
643145 779984
593736 576605
700663 628195
299261 79559
268976 696822
173470 365249
859753 407792
609081 117938
678655 544905
231314 814150
753058 448421
359871 312335
442571 486937
709663 70185
439129 67163
852906 257902
674004 279408
116683 85790
232678 678602
805200 14909
140379 146005
65412 345771
212798 155548
85353 975446
799805 747283
998200 582366
307438 34029
54265 561837
156879 458101
388426 79961
301163 35063
421105 509346
750781 557093
62148 916936
873087 891027
664186 341489
841215 661867
114333 999302
963402 975793
45502 523939
703756 121440
382155 753261
230826 931170
974626 169756
76541 736574
485279 747850
657066 305288
644409 629881
878900 210910
434433 795429
650161 195748
946608 157643
869347 226707
231724 500179
757874 775072
477389 857819
62825 108128
548785 244499
368165 965023
305472 88135
765923 244658
176814 687363
964711 350925
509945 90033
313642 120220
293248 291142
580581 507050
818623 496083
222219 329349
408197 130308
254992 692541
118573 858282
281823 808645
610997 642526
170967 698210
459750 758483
531043 100800
263068 44081
125126 55734
198752 109007
689184 889350
347475 378831
749749 85665
176224 136663
520617 232142
935699 935438
936207 525122
677246 60840
247524 198449
981165 762017
1445 458221
423372 724398
809687 980023
488733 515775
626096 708487
2676 490825
74218 438813
368193 976027
208027 94646
410049 808568
382272 188787
786647 238984
237208 999886
717588 557400
347107 919779
216731 583027
833892 370754
987670 216160
241452 45340
789645 493925
389785 726765
493335 283085
189157 819152
750019 345154
700229 294539
356003 805950
818002 9963
827265 588365
838650 715724
665769 289080
398906 951438
947236 888668
889480 916044
52853 452843
176843 545069
928695 515693
857740 981827
489107 106654
182528 848807
979165 380785
831658 926875
752674 2256
81034 381797
949008 608574
950899 971126
560639 572721
929725 878876
343779 937100
338218 402376
84514 846718
361416 340822
1597 380091
359650 244333
320635 930392
376533 705942
141341 122107
828791 749763
116899 264205
65905 134178
205542 234681
813959 674440
841731 403526
230608 931780
199306 571687
609041 329172
701192 922736
150339 6620
772424 294894
467981 228086
115158 346894
989441 625856
693642 871334
539400 516583
412792 706843
174730 254438
955699 377286
485634 596100
424822 136671
228755 141963
79044 704319
654788 508593
342823 144499
532819 958836
555836 523256
494418 491771
163501 909735
460959 309495
173665 259793
674572 23320
494005 786663
421483 333610
430207 447241
439711 414371
145804 176967
265764 390192
878688 332748
625422 199609
502209 16909
